<?xml version="1.0" encoding="utf-8"?>
<!-- Generator: Adobe Illustrator 16.0.0, SVG Export Plug-In . SVG Version: 6.00 Build 0)  -->
<!DOCTYPE svg PUBLIC "-//W3C//DTD SVG 1.1//EN" "http://www.w3.org/Graphics/SVG/1.1/DTD/svg11.dtd">
<svg version="1.1" id="Layer_1" xmlns="http://www.w3.org/2000/svg" xmlns:xlink="http://www.w3.org/1999/xlink" x="0px" y="0px"
	 width="400px" height="400px" viewBox="0 0 400 400" enable-background="new 0 0 400 400" xml:space="preserve">
<ellipse id="circulo_1_" fill="#DEDEDE" cx="200.387" cy="200.001" rx="197.744" ry="197.729"/>
<g id="ondas_cropped">
	<defs>
		<path id="ondas" d="M76.821,212.021c-2.014,0.053-4.065,0.24-6.171,0.532c-1.21,0.169-2.48,0.405-3.715,0.666
			c-0.165,0.035-0.348,0.097-0.514,0.133c-1.353,0.298-2.679,0.644-4.055,1.065c-0.063,0.018-0.109,0.023-0.172,0.045
			c-0.482,0.147-1,0.321-1.485,0.487c-0.985,0.333-1.918,0.707-2.914,1.109c-0.343,0.138-0.686,0.25-1.028,0.398
			c-0.363,0.156-0.719,0.322-1.085,0.487c-0.431,0.198-0.88,0.367-1.315,0.578c-1.036,0.5-2.099,1.012-3.141,1.597
			c-0.026,0.014-0.033,0.03-0.059,0.045c-0.711,0.399-1.456,0.801-2.17,1.24c-0.373,0.23-0.712,0.469-1.086,0.71
			c-0.201,0.131-0.368,0.304-0.57,0.444H47.11v0.133c-2.213,1.335-5.804,3.271-10.741,5.146c-1.438,0.546-3.01,1.021-4.628,1.508
			c-0.816,0.246-1.654,0.489-2.514,0.71c-0.887,0.228-1.756,0.469-2.687,0.666c-3.562,0.757-7.35,1.276-11.426,1.33
			c-2.649,0.035-5.418-0.143-8.226-0.532c-1.21-0.167-2.482-0.36-3.714-0.622c-0.056-0.011-0.115-0.028-0.171-0.043v8.429v3.813
			h0.057c0.167,5.247,0.655,10.426,1.486,15.529c0.775,0.146,1.534,0.295,2.285,0.399c2.809,0.39,5.521,0.565,8.171,0.53
			c4.076-0.052,7.92-0.618,11.483-1.374c0.93-0.197,1.8-0.438,2.688-0.666c0.858-0.221,1.695-0.465,2.513-0.709
			c1.618-0.486,3.188-0.961,4.628-1.507c5.097-1.94,8.722-3.94,10.911-5.28h0.23v-0.044c0.18-0.128,0.335-0.24,0.514-0.356
			c0.373-0.24,0.769-0.479,1.143-0.709c0.714-0.44,1.4-0.843,2.114-1.241c0.023-0.015,0.031-0.077,0.057-0.09
			c1.042-0.583,2.104-1.052,3.142-1.552c0.435-0.211,0.882-0.426,1.314-0.622c0.365-0.166,0.722-0.287,1.086-0.443
			c0.342-0.148,0.686-0.305,1.028-0.443c0.994-0.402,1.929-0.776,2.915-1.11c0.485-0.164,1.003-0.338,1.485-0.487
			c0.062-0.018,0.109-0.026,0.172-0.045c1.376-0.42,2.702-0.765,4.057-1.064c0.166-0.036,0.349-0.098,0.513-0.133
			c1.235-0.26,2.506-0.454,3.714-0.622c2.811-0.389,5.58-0.566,8.229-0.532c4.075,0.054,7.863,0.576,11.426,1.331
			c0.928,0.198,1.797,0.436,2.685,0.665c0.859,0.223,1.699,0.467,2.515,0.711c1.617,0.487,3.189,1.006,4.626,1.553
			c4.871,1.852,8.406,3.725,10.627,5.059v0.177h0.17c0.204,0.141,0.427,0.27,0.629,0.399c0.373,0.241,0.714,0.479,1.085,0.71
			c0.716,0.439,1.458,0.841,2.171,1.241c0.025,0.015,0.034,0.031,0.057,0.045c1.043,0.583,2.104,1.095,3.142,1.597
			c0.434,0.211,0.825,0.425,1.257,0.622c0.366,0.165,0.779,0.286,1.143,0.442c0.344,0.147,0.687,0.305,1.028,0.444
			c0.995,0.401,1.929,0.774,2.915,1.109c0.485,0.164,0.945,0.338,1.428,0.487c0.062,0.02,0.167,0.025,0.229,0.044
			c1.377,0.42,2.703,0.767,4.058,1.064c0.165,0.036,0.349,0.099,0.515,0.135c1.231,0.258,2.504,0.452,3.713,0.621
			c2.808,0.389,5.463,0.564,8.113,0.532c4.076-0.055,7.979-0.576,11.541-1.332c0.93-0.197,1.799-0.438,2.685-0.666
			c0.859-0.221,1.642-0.463,2.457-0.709c1.619-0.486,3.191-1.006,4.628-1.552c4.637-1.762,8.048-3.518,10.284-4.836v0.045h0.286
			c0.18-0.126,0.393-0.241,0.571-0.356c0.374-0.241,0.714-0.479,1.088-0.709c0.714-0.441,1.399-0.844,2.113-1.242
			c0.024-0.014,0.088-0.076,0.114-0.089c1.042-0.583,2.103-1.097,3.143-1.597c0.432-0.211,0.824-0.381,1.256-0.577
			c0.364-0.167,0.777-0.332,1.143-0.488c0.343-0.147,0.686-0.261,1.028-0.398c0.994-0.401,1.928-0.775,2.913-1.109
			c0.486-0.166,0.944-0.34,1.428-0.489c0.063-0.019,0.167-0.025,0.229-0.044c1.377-0.421,2.701-0.766,4.056-1.064
			c0.166-0.037,0.292-0.099,0.457-0.134c1.232-0.26,2.505-0.452,3.714-0.621c2.808-0.389,5.577-0.567,8.227-0.533
			c4.076,0.055,7.922,0.577,11.483,1.332c0.93,0.197,1.798,0.437,2.685,0.667c0.861,0.221,1.641,0.465,2.457,0.709
			c1.619,0.486,3.19,0.961,4.629,1.509c4.874,1.853,8.461,3.769,10.685,5.102v0.178h0.171c0.201,0.141,0.428,0.269,0.63,0.398
			c0.37,0.241,0.713,0.48,1.084,0.711c0.714,0.439,1.4,0.841,2.114,1.241c0.022,0.014,0.032,0.031,0.057,0.045
			c1.043,0.584,2.162,1.096,3.199,1.597c0.436,0.211,0.825,0.424,1.258,0.621c0.366,0.166,0.723,0.287,1.085,0.444
			c0.344,0.146,0.686,0.304,1.028,0.442c0.995,0.402,1.987,0.775,2.972,1.109c0.485,0.165,0.945,0.338,1.428,0.488
			c0.062,0.02,0.109,0.024,0.173,0.045c1.376,0.419,2.76,0.765,4.113,1.064c0.165,0.035,0.293,0.098,0.456,0.133
			c1.231,0.259,2.505,0.452,3.714,0.621c2.807,0.39,5.521,0.566,8.169,0.533c4.077-0.055,7.922-0.576,11.486-1.332
			c0.928-0.196,1.798-0.438,2.685-0.666c0.86-0.222,1.696-0.463,2.514-0.709c1.618-0.487,3.19-1.006,4.627-1.553
			c5.099-1.939,8.779-3.896,10.971-5.234h0.171v-0.089c0.181-0.126,0.394-0.241,0.57-0.355c0.373-0.24,0.716-0.48,1.088-0.71
			c0.715-0.44,1.401-0.842,2.112-1.241c0.024-0.015,0.031-0.032,0.058-0.045c1.042-0.583,2.161-1.097,3.199-1.597
			c0.434-0.211,0.826-0.381,1.257-0.577c0.365-0.167,0.721-0.332,1.085-0.488c0.345-0.147,0.687-0.261,1.03-0.398
			c0.992-0.401,1.983-0.82,2.971-1.154c0.484-0.166,0.946-0.295,1.428-0.444c0.062-0.019,0.108-0.069,0.171-0.089
			c1.378-0.42,2.761-0.766,4.113-1.064c0.166-0.035,0.293-0.054,0.457-0.089c1.233-0.26,2.506-0.497,3.714-0.666
			c2.811-0.389,5.579-0.565,8.229-0.532c4.074,0.054,7.921,0.621,11.483,1.376c0.928,0.197,1.74,0.392,2.628,0.622
			c0.857,0.221,1.697,0.465,2.515,0.711c1.618,0.485,3.189,1.004,4.628,1.552c4.875,1.853,8.462,3.724,10.683,5.057v0.179h0.171
			c0.203,0.141,0.428,0.312,0.629,0.442c0.373,0.241,0.715,0.437,1.086,0.667c0.715,0.438,1.402,0.841,2.113,1.24
			c0.024,0.015,0.033,0.076,0.058,0.09c1.044,0.584,2.161,1.096,3.198,1.597c0.437,0.211,0.825,0.38,1.258,0.576
			c0.366,0.166,0.721,0.332,1.085,0.489c0.347,0.146,0.688,0.26,1.031,0.398c0.991,0.402,1.927,0.775,2.912,1.108
			c0.484,0.165,1.003,0.339,1.485,0.488c0.062,0.02,0.109,0.026,0.174,0.045c1.375,0.42,2.759,0.765,4.111,1.064
			c0.165,0.036,0.291,0.098,0.457,0.133c1.233,0.259,2.506,0.497,3.715,0.666c2.807,0.39,5.521,0.566,8.17,0.533
			c0.192-0.003,0.381-0.041,0.57-0.045c0.966-5.533,1.592-11.157,1.771-16.86h0.058v-3.813v-6.876
			c-0.749,0.041-1.517,0.078-2.285,0.088c-2.649,0.036-5.419-0.143-8.227-0.532c-1.21-0.168-2.482-0.36-3.715-0.62
			c-0.166-0.035-0.294-0.097-0.455-0.134c-1.355-0.298-2.738-0.644-4.114-1.064c-0.062-0.019-0.109-0.025-0.173-0.044
			c-0.482-0.149-1.002-0.323-1.484-0.488c-0.985-0.333-1.921-0.707-2.913-1.109c-0.345-0.139-0.688-0.297-1.031-0.442
			c-0.362-0.157-0.719-0.278-1.086-0.444c-0.432-0.197-0.821-0.411-1.258-0.621c-1.036-0.502-2.154-1.014-3.199-1.598
			c-0.021-0.014-0.032-0.03-0.056-0.045c-0.714-0.399-1.399-0.8-2.114-1.241c-0.371-0.23-0.711-0.468-1.085-0.709
			c-0.14-0.091-0.315-0.174-0.458-0.267v-0.135h-0.171c-2.188-1.338-5.87-3.295-10.969-5.233c-1.438-0.547-3.009-1.066-4.626-1.554
			c-0.818-0.245-1.659-0.487-2.517-0.708c-0.888-0.23-1.757-0.469-2.685-0.667c-3.562-0.756-7.409-1.275-11.483-1.331
			c-2.651-0.035-5.361,0.144-8.173,0.533c-1.209,0.169-2.479,0.36-3.713,0.621c-0.164,0.035-0.292,0.098-0.456,0.134
			c-1.355,0.298-2.737,0.643-4.115,1.063c-0.062,0.019-0.108,0.025-0.171,0.045c-0.48,0.15-0.941,0.322-1.429,0.488
			c-0.984,0.332-1.976,0.708-2.97,1.109c-0.344,0.139-0.687,0.295-1.029,0.442c-0.364,0.156-0.719,0.277-1.084,0.444
			c-0.433,0.197-0.824,0.41-1.259,0.62c-1.035,0.502-2.155,1.015-3.199,1.598c-0.024,0.014-0.031,0.03-0.055,0.044
			c-0.714,0.401-1.4,0.802-2.116,1.243c-0.371,0.229-0.711,0.469-1.085,0.71c-0.202,0.129-0.424,0.258-0.628,0.397h-0.173v0.135
			c-2.211,1.335-5.841,3.261-10.798,5.146c-1.438,0.547-3.009,1.066-4.628,1.553c-0.816,0.244-1.654,0.489-2.513,0.709
			c-0.888,0.23-1.7,0.426-2.629,0.621c-3.563,0.757-7.409,1.321-11.485,1.375c-2.649,0.036-5.418-0.143-8.227-0.531
			c-1.208-0.168-2.48-0.405-3.712-0.665c-0.166-0.035-0.293-0.054-0.457-0.089c-1.354-0.298-2.738-0.644-4.114-1.064
			c-0.062-0.019-0.108-0.07-0.172-0.089c-0.481-0.149-0.943-0.278-1.429-0.443c-0.983-0.334-1.976-0.752-2.97-1.154
			c-0.345-0.139-0.688-0.252-1.028-0.399c-0.364-0.155-0.72-0.321-1.088-0.487c-0.43-0.197-0.821-0.366-1.255-0.576
			c-1.038-0.502-2.158-1.014-3.201-1.598c-0.023-0.014-0.033-0.031-0.057-0.045c-0.713-0.401-1.4-0.801-2.114-1.242
			c-0.373-0.229-0.713-0.468-1.084-0.71c-0.142-0.09-0.315-0.172-0.458-0.266v-0.134h-0.171c-2.189-1.338-5.871-3.34-10.971-5.278
			c-1.438-0.547-3.01-1.021-4.628-1.509c-0.815-0.245-1.654-0.488-2.515-0.709c-0.887-0.231-1.697-0.469-2.628-0.666
			c-3.562-0.757-7.465-1.32-11.541-1.376c-2.648-0.035-5.361,0.144-8.169,0.533c-1.209,0.169-2.482,0.405-3.715,0.666
			c-0.164,0.035-0.291,0.097-0.457,0.132c-1.354,0.3-2.737,0.645-4.114,1.065c-0.062,0.018-0.109,0.024-0.171,0.045
			c-0.484,0.148-0.942,0.321-1.428,0.488c-0.986,0.332-1.92,0.706-2.914,1.108c-0.344,0.138-0.743,0.251-1.087,0.398
			c-0.365,0.156-0.722,0.322-1.084,0.489c-0.433,0.197-0.825,0.365-1.257,0.575c-1.04,0.502-2.156,1.015-3.199,1.598
			c-0.025,0.014-0.034,0.03-0.057,0.044c-0.715,0.4-1.4,0.802-2.115,1.243c-0.373,0.229-0.714,0.469-1.087,0.71h-0.115
			c-2.202,1.337-5.89,3.281-10.913,5.189c-1.437,0.547-3.008,1.066-4.627,1.553c-0.817,0.246-1.598,0.489-2.457,0.71
			c-0.887,0.228-1.755,0.425-2.686,0.621c-3.562,0.757-7.349,1.321-11.426,1.375c-2.649,0.035-5.419-0.143-8.227-0.532
			c-1.208-0.167-2.481-0.405-3.714-0.665c-0.167-0.035-0.35-0.053-0.514-0.089c-1.355-0.298-2.68-0.644-4.059-1.064
			c-0.061-0.021-0.107-0.07-0.171-0.089c-0.482-0.151-1-0.278-1.485-0.443c-0.986-0.333-1.919-0.752-2.915-1.153
			c-0.34-0.14-0.684-0.253-1.028-0.399c-0.364-0.155-0.719-0.323-1.085-0.488c-0.432-0.196-0.88-0.365-1.315-0.576
			c-1.036-0.502-2.097-1.015-3.141-1.597c-0.024-0.014-0.034-0.031-0.058-0.045c-0.712-0.401-1.455-0.801-2.171-1.243
			c-0.372-0.229-0.712-0.469-1.086-0.708c-0.138-0.089-0.258-0.175-0.399-0.268v-0.133h-0.229
			c-2.189-1.339-5.813-3.341-10.912-5.279c-1.437-0.546-3.01-1.021-4.628-1.508c-0.815-0.245-1.655-0.489-2.513-0.71
			c-0.888-0.23-1.757-0.469-2.686-0.665c-3.563-0.757-7.409-1.322-11.483-1.376C78.158,212.012,77.49,212.004,76.821,212.021z
			 M76.821,267.563c-2.014,0.054-4.065,0.239-6.171,0.532c-1.21,0.168-2.48,0.405-3.715,0.665c-0.165,0.034-0.348,0.097-0.514,0.134
			c-1.353,0.3-2.679,0.644-4.055,1.065c-0.063,0.019-0.109,0.023-0.172,0.043c-0.482,0.149-1,0.322-1.485,0.488
			c-0.985,0.334-1.918,0.707-2.914,1.108c-0.343,0.14-0.686,0.253-1.028,0.4c-0.363,0.156-0.719,0.323-1.085,0.487
			c-0.431,0.196-0.88,0.367-1.315,0.576c-1.036,0.502-2.099,1.014-3.141,1.598c-0.026,0.015-0.033,0.075-0.059,0.089
			c-0.711,0.399-1.456,0.802-2.17,1.242c-0.373,0.23-0.712,0.423-1.086,0.665c-0.201,0.13-0.368,0.303-0.57,0.443H47.11v0.133
			c-2.213,1.338-5.804,3.271-10.741,5.147c-1.438,0.547-3.01,1.021-4.628,1.51c-0.816,0.243-1.654,0.487-2.514,0.709
			c-0.887,0.229-1.756,0.467-2.687,0.665c-3.562,0.756-7.35,1.276-11.426,1.331c-0.698,0.007-1.4,0.02-2.113,0
			c3.871,9.026,8.819,17.666,14.684,25.862c0.493-0.111,0.993-0.228,1.486-0.354c0.858-0.221,1.695-0.465,2.513-0.71
			c1.618-0.486,3.188-1.007,4.628-1.553c5.097-1.938,8.722-3.939,10.911-5.278h0.23v-0.045c0.18-0.125,0.335-0.239,0.514-0.355
			c0.373-0.241,0.769-0.479,1.143-0.709c0.714-0.441,1.4-0.842,2.114-1.242c0.023-0.014,0.031-0.03,0.057-0.045
			c1.042-0.583,2.104-1.096,3.142-1.597c0.435-0.211,0.882-0.426,1.314-0.621c0.365-0.165,0.722-0.288,1.086-0.443
			c0.342-0.148,0.686-0.306,1.028-0.443c0.994-0.403,1.929-0.776,2.915-1.11c0.485-0.165,1.003-0.337,1.485-0.486
			c0.062-0.02,0.109-0.026,0.172-0.045c1.376-0.422,2.702-0.767,4.057-1.065c0.166-0.035,0.349-0.099,0.513-0.133
			c1.235-0.26,2.506-0.453,3.714-0.62c2.811-0.391,5.58-0.568,8.229-0.532c4.075,0.054,7.863,0.574,11.426,1.33
			c0.928,0.197,1.797,0.437,2.685,0.665c0.859,0.22,1.699,0.465,2.515,0.709c1.617,0.487,3.189,1.008,4.626,1.555
			c4.871,1.849,8.406,3.723,10.627,5.057v0.178h0.17c0.204,0.141,0.427,0.268,0.629,0.398c0.373,0.241,0.714,0.479,1.085,0.709
			c0.716,0.441,1.458,0.844,2.171,1.242c0.025,0.014,0.034,0.031,0.057,0.045c1.043,0.584,2.104,1.097,3.142,1.597
			c0.434,0.211,0.825,0.426,1.257,0.622c0.366,0.165,0.779,0.288,1.143,0.442c0.344,0.149,0.687,0.306,1.028,0.443
			c0.995,0.403,1.929,0.778,2.915,1.11c0.485,0.166,0.945,0.339,1.428,0.487c0.062,0.02,0.167,0.026,0.229,0.044
			c1.377,0.422,2.703,0.767,4.058,1.065c0.165,0.035,0.349,0.1,0.515,0.134c1.231,0.26,2.504,0.453,3.713,0.621
			c2.808,0.39,5.463,0.567,8.113,0.531c4.076-0.054,7.979-0.574,11.541-1.331c0.93-0.197,1.799-0.435,2.685-0.665
			c0.859-0.22,1.642-0.464,2.457-0.709c1.619-0.487,3.191-1.007,4.628-1.553c4.637-1.763,8.048-3.518,10.284-4.836v0.045h0.286
			c0.18-0.125,0.393-0.24,0.571-0.355c0.374-0.241,0.714-0.479,1.088-0.709c0.714-0.441,1.399-0.843,2.113-1.243
			c0.024-0.013,0.088-0.074,0.114-0.089c1.042-0.583,2.103-1.094,3.143-1.598c0.432-0.21,0.824-0.379,1.256-0.576
			c0.364-0.163,0.777-0.287,1.143-0.443c0.343-0.146,0.686-0.305,1.028-0.442c0.994-0.403,1.928-0.776,2.913-1.11
			c0.486-0.165,0.944-0.338,1.428-0.488c0.063-0.019,0.167-0.023,0.229-0.043c1.377-0.422,2.701-0.767,4.056-1.065
			c0.166-0.036,0.292-0.1,0.457-0.132c1.232-0.26,2.505-0.455,3.714-0.622c2.808-0.39,5.577-0.567,8.227-0.531
			c4.076,0.054,7.922,0.574,11.483,1.33c0.93,0.196,1.798,0.437,2.685,0.665c0.861,0.22,1.641,0.465,2.457,0.711
			c1.619,0.485,3.19,1.007,4.629,1.552c4.874,1.853,8.461,3.724,10.685,5.057v0.179h0.171c0.201,0.141,0.428,0.269,0.63,0.397
			c0.37,0.242,0.713,0.479,1.084,0.71c0.714,0.441,1.4,0.844,2.114,1.243c0.022,0.014,0.032,0.03,0.057,0.044
			c1.043,0.583,2.162,1.097,3.199,1.597c0.436,0.212,0.825,0.425,1.258,0.621c0.366,0.166,0.723,0.288,1.085,0.443
			c0.344,0.148,0.686,0.305,1.028,0.443c0.995,0.402,1.987,0.778,2.972,1.109c0.485,0.167,0.945,0.339,1.428,0.489
			c0.062,0.019,0.109,0.024,0.173,0.043c1.376,0.422,2.76,0.766,4.113,1.065c0.165,0.035,0.293,0.099,0.456,0.133
			c1.231,0.261,2.505,0.452,3.714,0.62c2.807,0.391,5.521,0.569,8.169,0.533c4.077-0.054,7.922-0.573,11.486-1.331
			c0.928-0.197,1.798-0.436,2.685-0.665c0.86-0.221,1.696-0.464,2.514-0.709c1.618-0.487,3.19-1.007,4.627-1.554
			c5.099-1.937,8.779-3.896,10.971-5.233h0.171v-0.09c0.181-0.125,0.394-0.24,0.57-0.354c0.373-0.242,0.716-0.48,1.088-0.71
			c0.715-0.438,1.401-0.841,2.112-1.242c0.024-0.014,0.031-0.03,0.058-0.045c1.042-0.583,2.161-1.094,3.199-1.598
			c0.434-0.21,0.826-0.379,1.257-0.576c0.365-0.163,0.721-0.331,1.085-0.487c0.345-0.147,0.687-0.261,1.03-0.398
			c0.992-0.403,1.983-0.82,2.971-1.154c0.484-0.166,0.946-0.294,1.428-0.444c0.062-0.019,0.108-0.068,0.171-0.088
			c1.378-0.422,2.761-0.767,4.113-1.065c0.166-0.035,0.293-0.055,0.457-0.087c1.233-0.26,2.506-0.499,3.714-0.666
			c2.811-0.389,5.579-0.569,8.229-0.532c4.074,0.054,7.921,0.619,11.483,1.375c0.928,0.196,1.74,0.392,2.628,0.62
			c0.857,0.221,1.697,0.466,2.515,0.711c1.618,0.485,3.189,1.007,4.628,1.553c4.875,1.852,8.462,3.725,10.683,5.056v0.179h0.171
			c0.203,0.141,0.428,0.313,0.629,0.442c0.373,0.242,0.715,0.479,1.086,0.71c0.715,0.441,1.402,0.844,2.113,1.243
			c0.024,0.014,0.033,0.03,0.058,0.044c1.044,0.583,2.161,1.097,3.198,1.597c0.437,0.212,0.825,0.38,1.258,0.576
			c0.366,0.167,0.721,0.333,1.085,0.488c0.347,0.148,0.688,0.261,1.031,0.4c0.024,0.009,0.032,0.034,0.058,0.043
			c5.284-7.639,9.737-15.657,13.31-23.999c-0.15-0.021-0.305-0.024-0.455-0.043c-1.21-0.17-2.482-0.362-3.715-0.622
			c-0.166-0.034-0.294-0.098-0.455-0.134c-1.355-0.299-2.738-0.644-4.114-1.065c-0.062-0.018-0.109-0.024-0.173-0.042
			c-0.482-0.15-1.002-0.323-1.484-0.488c-0.985-0.334-1.921-0.709-2.913-1.11c-0.345-0.14-0.688-0.296-1.031-0.443
			c-0.362-0.157-0.719-0.278-1.086-0.443c-0.432-0.196-0.821-0.411-1.258-0.622c-1.036-0.501-2.154-0.97-3.199-1.553
			c-0.021-0.014-0.032-0.075-0.056-0.089c-0.714-0.398-1.399-0.801-2.114-1.242c-0.371-0.23-0.711-0.467-1.085-0.71
			c-0.14-0.089-0.315-0.172-0.458-0.267v-0.133h-0.171c-2.188-1.338-5.87-3.296-10.969-5.234c-1.438-0.546-3.009-1.065-4.626-1.553
			c-0.818-0.243-1.659-0.487-2.517-0.71c-0.888-0.228-1.757-0.468-2.685-0.665c-3.562-0.756-7.409-1.275-11.483-1.331
			c-2.651-0.034-5.361,0.143-8.173,0.532c-1.209,0.168-2.479,0.362-3.713,0.622c-0.164,0.034-0.292,0.097-0.456,0.132
			c-1.355,0.301-2.737,0.646-4.115,1.065c-0.062,0.02-0.108,0.025-0.171,0.044c-0.48,0.149-0.941,0.323-1.429,0.488
			c-0.984,0.334-1.976,0.706-2.97,1.109c-0.344,0.138-0.687,0.297-1.029,0.443c-0.364,0.157-0.719,0.278-1.084,0.443
			c-0.433,0.197-0.824,0.412-1.259,0.621c-1.035,0.502-2.155,1.015-3.199,1.597c-0.024,0.015-0.031,0.031-0.055,0.045
			c-0.714,0.4-1.4,0.803-2.116,1.243c-0.371,0.229-0.711,0.467-1.085,0.708c-0.202,0.131-0.424,0.258-0.628,0.399h-0.173v0.133
			c-2.211,1.337-5.841,3.265-10.798,5.148c-1.438,0.546-3.009,1.065-4.628,1.553c-0.816,0.243-1.654,0.488-2.513,0.71
			c-0.888,0.229-1.7,0.422-2.629,0.62c-3.563,0.756-7.409,1.322-11.485,1.375c-2.649,0.035-5.418-0.142-8.227-0.532
			c-1.208-0.168-2.48-0.405-3.712-0.665c-0.166-0.034-0.293-0.054-0.457-0.089c-1.354-0.3-2.738-0.645-4.114-1.065
			c-0.062-0.019-0.108-0.069-0.172-0.087c-0.481-0.15-0.943-0.279-1.429-0.445c-0.983-0.333-1.976-0.752-2.97-1.153
			c-0.345-0.14-0.688-0.251-1.028-0.399c-0.364-0.156-0.72-0.322-1.088-0.487c-0.43-0.196-0.821-0.366-1.255-0.578
			c-1.038-0.5-2.158-1.014-3.201-1.597c-0.023-0.014-0.033-0.03-0.057-0.044c-0.713-0.4-1.4-0.802-2.114-1.243
			c-0.373-0.229-0.713-0.468-1.084-0.709c-0.142-0.092-0.315-0.172-0.458-0.267v-0.133h-0.171
			c-2.189-1.339-5.871-3.341-10.971-5.279c-1.438-0.546-3.01-1.021-4.628-1.508c-0.815-0.245-1.654-0.488-2.515-0.71
			c-0.887-0.229-1.697-0.469-2.628-0.665c-3.562-0.756-7.465-1.32-11.541-1.376c-2.648-0.034-5.361,0.143-8.169,0.532
			c-1.209,0.168-2.482,0.406-3.715,0.667c-0.164,0.033-0.291,0.096-0.457,0.132c-1.354,0.3-2.737,0.646-4.114,1.064
			c-0.062,0.02-0.109,0.026-0.171,0.045c-0.484,0.149-0.942,0.323-1.428,0.488c-0.986,0.334-1.92,0.706-2.914,1.108
			c-0.344,0.139-0.743,0.253-1.087,0.399c-0.365,0.157-0.722,0.323-1.084,0.488c-0.433,0.196-0.825,0.367-1.257,0.576
			c-1.04,0.502-2.156,1.015-3.199,1.597c-0.025,0.015-0.034,0.031-0.057,0.045c-0.715,0.4-1.4,0.803-2.115,1.243
			c-0.373,0.229-0.714,0.467-1.087,0.708h-0.115c-2.202,1.338-5.89,3.284-10.913,5.191c-1.437,0.547-3.008,1.065-4.627,1.555
			c-0.817,0.243-1.598,0.487-2.457,0.709c-0.887,0.229-1.755,0.423-2.686,0.62c-3.562,0.757-7.349,1.321-11.426,1.376
			c-2.649,0.034-5.419-0.142-8.227-0.532c-1.208-0.168-2.481-0.406-3.714-0.666c-0.167-0.034-0.35-0.053-0.514-0.088
			c-1.355-0.301-2.68-0.645-4.059-1.065c-0.061-0.02-0.107-0.071-0.171-0.088c-0.482-0.15-1-0.278-1.485-0.444
			c-0.986-0.335-1.919-0.752-2.915-1.152c-0.34-0.141-0.684-0.253-1.028-0.4c-0.364-0.156-0.719-0.323-1.085-0.489
			c-0.432-0.194-0.88-0.365-1.315-0.576c-1.036-0.5-2.097-1.015-3.141-1.597c-0.024-0.014-0.034-0.031-0.058-0.045
			c-0.712-0.398-1.455-0.801-2.171-1.243c-0.372-0.229-0.712-0.468-1.086-0.709c-0.138-0.087-0.258-0.173-0.399-0.267v-0.133h-0.229
			c-2.189-1.339-5.813-3.34-10.912-5.278c-1.437-0.546-3.01-1.021-4.628-1.509c-0.815-0.243-1.655-0.488-2.513-0.709
			c-0.888-0.229-1.757-0.47-2.686-0.665c-3.563-0.756-7.409-1.322-11.483-1.376C78.158,267.556,77.49,267.545,76.821,267.563z
			 M76.821,323.107c-2.014,0.052-4.065,0.238-6.171,0.531c-1.21,0.166-2.48,0.404-3.715,0.664c-0.165,0.034-0.348,0.098-0.514,0.135
			c-1.353,0.297-2.679,0.643-4.055,1.063c-0.063,0.019-0.109,0.025-0.172,0.044c-0.482,0.149-1,0.322-1.485,0.488
			c-0.985,0.334-1.918,0.708-2.914,1.109c-0.343,0.14-0.686,0.251-1.028,0.399c-0.363,0.155-0.719,0.32-1.085,0.487
			c-0.431,0.196-0.88,0.366-1.315,0.577c-1.036,0.501-2.099,1.014-3.141,1.597c-0.026,0.014-0.033,0.075-0.059,0.09
			c-0.711,0.398-1.456,0.8-2.17,1.241c-0.373,0.231-0.712,0.47-1.086,0.71c-0.201,0.131-0.368,0.258-0.57,0.4H47.11v0.132
			c-0.364,0.219-0.817,0.505-1.256,0.755c6.639,6.481,13.939,12.526,21.824,18.1c1.018-0.195,2.041-0.352,3.028-0.489
			c2.811-0.389,5.58-0.565,8.229-0.532c4.075,0.054,7.863,0.575,11.426,1.331c0.928,0.198,1.797,0.438,2.685,0.666
			c0.859,0.221,1.699,0.465,2.515,0.71c1.617,0.488,3.189,1.005,4.626,1.552c4.871,1.853,8.406,3.725,10.627,5.059v0.177h0.17
			c0.204,0.143,0.427,0.27,0.629,0.4c0.373,0.24,0.714,0.479,1.085,0.71c0.716,0.438,1.458,0.841,2.171,1.242
			c0.025,0.012,0.034,0.074,0.057,0.088c1.043,0.585,2.104,1.051,3.142,1.553c0.434,0.209,0.825,0.424,1.257,0.622
			c0.366,0.164,0.779,0.285,1.143,0.442c0.344,0.147,0.687,0.305,1.028,0.444c0.995,0.4,1.929,0.774,2.915,1.108
			c0.485,0.164,0.945,0.34,1.428,0.487c0.062,0.021,0.167,0.026,0.229,0.045c1.377,0.42,2.703,0.766,4.058,1.065
			c0.165,0.035,0.349,0.097,0.515,0.133c1.231,0.259,2.504,0.453,3.713,0.621c2.808,0.389,5.463,0.567,8.113,0.532
			c4.076-0.054,7.979-0.576,11.541-1.331c0.93-0.198,1.799-0.436,2.685-0.665c0.859-0.222,1.642-0.466,2.457-0.71
			c1.619-0.486,3.191-1.007,4.628-1.553c4.637-1.762,8.048-3.517,10.284-4.835v0.044h0.286c0.18-0.125,0.393-0.241,0.571-0.356
			c0.374-0.24,0.714-0.479,1.088-0.709c0.714-0.44,1.399-0.842,2.113-1.243c0.024-0.012,0.088-0.031,0.114-0.044
			c1.042-0.583,2.103-1.095,3.143-1.597c0.432-0.209,0.824-0.425,1.256-0.622c0.364-0.164,0.777-0.286,1.143-0.443
			c0.343-0.146,0.686-0.303,1.028-0.443c0.994-0.399,1.928-0.774,2.913-1.108c0.486-0.166,0.944-0.338,1.428-0.489
			c0.063-0.018,0.167-0.022,0.229-0.044c1.377-0.42,2.701-0.765,4.056-1.063c0.166-0.037,0.292-0.1,0.457-0.134
			c1.232-0.259,2.505-0.453,3.714-0.62c2.808-0.39,5.577-0.567,8.227-0.533c4.076,0.054,7.922,0.575,11.483,1.331
			c0.93,0.197,1.798,0.438,2.685,0.666c0.861,0.222,1.641,0.465,2.457,0.71c1.619,0.485,3.19,1.006,4.629,1.552
			c4.874,1.853,8.461,3.725,10.685,5.057v0.18h0.171c0.201,0.142,0.428,0.269,0.63,0.398c0.37,0.241,0.713,0.48,1.084,0.71
			c0.714,0.439,1.4,0.842,2.114,1.243c0.022,0.011,0.032,0.029,0.057,0.043c1.043,0.584,2.162,1.095,3.199,1.598
			c0.436,0.208,0.825,0.423,1.258,0.621c0.366,0.165,0.723,0.287,1.085,0.443c0.344,0.146,0.686,0.304,1.028,0.443
			c0.995,0.4,1.987,0.775,2.972,1.108c0.485,0.165,0.945,0.339,1.428,0.489c0.062,0.02,0.109,0.024,0.173,0.045
			c1.376,0.419,2.76,0.765,4.113,1.062c0.165,0.038,0.293,0.1,0.456,0.134c1.231,0.26,2.505,0.454,3.714,0.621
			c2.807,0.39,5.521,0.568,8.169,0.533c4.077-0.055,7.922-0.576,11.486-1.33c0.928-0.199,1.798-0.438,2.685-0.666
			c0.86-0.223,1.696-0.466,2.514-0.71c1.618-0.487,3.19-1.007,4.627-1.554c5.099-1.937,8.779-3.896,10.971-5.233h0.171v-0.089
			c0.181-0.126,0.394-0.239,0.57-0.355c0.373-0.242,0.716-0.48,1.088-0.71c0.715-0.439,1.401-0.842,2.112-1.243
			c0.024-0.012,0.031-0.03,0.058-0.044c1.042-0.583,2.161-1.095,3.199-1.598c0.434-0.208,0.826-0.38,1.257-0.577
			c0.365-0.164,0.721-0.331,1.085-0.488c0.345-0.146,0.687-0.258,1.03-0.398c0.992-0.399,1.983-0.819,2.971-1.153
			c0.484-0.166,0.946-0.293,1.428-0.444c0.062-0.018,0.108-0.067,0.171-0.088c1.378-0.421,2.761-0.765,4.113-1.064
			c0.166-0.037,0.293-0.055,0.457-0.089c1.233-0.259,2.506-0.498,3.714-0.665c2.811-0.39,5.579-0.567,8.229-0.531
			c0.673,0.009,1.339,0.054,1.999,0.087c8.977-6.403,17.181-13.447,24.511-21.026c-1.569-0.734-3.295-1.496-5.313-2.263
			c-1.438-0.548-3.009-1.065-4.626-1.553c-0.818-0.246-1.659-0.489-2.517-0.71c-0.888-0.229-1.757-0.469-2.685-0.665
			c-3.562-0.757-7.409-1.276-11.483-1.331c-2.651-0.035-5.361,0.143-8.173,0.533c-1.209,0.166-2.479,0.359-3.713,0.62
			c-0.164,0.033-0.292,0.097-0.456,0.133c-1.355,0.299-2.737,0.644-4.115,1.064c-0.062,0.019-0.108,0.026-0.171,0.045
			c-0.48,0.148-0.941,0.321-1.429,0.488c-0.984,0.332-1.976,0.706-2.97,1.108c-0.344,0.139-0.687,0.296-1.029,0.443
			c-0.364,0.155-0.719,0.277-1.084,0.444c-0.433,0.195-0.824,0.41-1.259,0.621c-1.035,0.5-2.155,1.014-3.199,1.597
			c-0.024,0.015-0.031,0.029-0.055,0.044c-0.714,0.4-1.4,0.801-2.116,1.243c-0.371,0.229-0.711,0.469-1.085,0.71
			c-0.202,0.13-0.424,0.257-0.628,0.398h-0.173v0.134c-2.211,1.336-5.841,3.262-10.798,5.146c-1.438,0.546-3.009,1.066-4.628,1.552
			c-0.816,0.246-1.654,0.489-2.513,0.711c-0.888,0.229-1.7,0.424-2.629,0.62c-3.563,0.755-7.409,1.322-11.485,1.376
			c-2.649,0.035-5.418-0.143-8.227-0.532c-1.208-0.168-2.48-0.405-3.712-0.665c-0.166-0.035-0.293-0.054-0.457-0.09
			c-1.354-0.299-2.738-0.645-4.114-1.064c-0.062-0.02-0.108-0.068-0.172-0.09c-0.481-0.147-0.943-0.278-1.429-0.442
			c-0.983-0.333-1.976-0.752-2.97-1.154c-0.345-0.139-0.688-0.252-1.028-0.398c-0.364-0.155-0.72-0.323-1.088-0.487
			c-0.43-0.197-0.821-0.367-1.255-0.578c-1.038-0.501-2.158-1.012-3.201-1.597c-0.023-0.014-0.033-0.03-0.057-0.045
			c-0.713-0.399-1.4-0.802-2.114-1.24c-0.373-0.231-0.713-0.469-1.084-0.71c-0.142-0.091-0.315-0.172-0.458-0.266v-0.134h-0.171
			c-2.189-1.34-5.871-3.343-10.971-5.279c-1.438-0.548-3.01-1.021-4.628-1.508c-0.815-0.246-1.654-0.49-2.515-0.71
			c-0.887-0.23-1.697-0.469-2.628-0.666c-3.562-0.757-7.465-1.32-11.541-1.375c-2.648-0.035-5.361,0.143-8.169,0.533
			c-1.209,0.166-2.482,0.404-3.715,0.665c-0.163,0.033-0.291,0.097-0.457,0.133c-1.354,0.298-2.737,0.643-4.114,1.064
			c-0.062,0.018-0.109,0.026-0.171,0.044c-0.484,0.149-0.942,0.322-1.428,0.489c-0.986,0.332-1.92,0.706-2.914,1.107
			c-0.344,0.14-0.743,0.252-1.087,0.399c-0.365,0.155-0.722,0.322-1.084,0.488c-0.433,0.195-0.825,0.366-1.257,0.577
			c-1.04,0.5-2.156,1.014-3.199,1.597c-0.025,0.015-0.034,0.074-0.057,0.089c-0.715,0.399-1.4,0.756-2.115,1.198
			c-0.373,0.229-0.714,0.469-1.087,0.71h-0.115c-2.202,1.338-5.89,3.28-10.913,5.189c-1.437,0.547-3.008,1.066-4.627,1.553
			c-0.817,0.246-1.598,0.487-2.457,0.71c-0.887,0.229-1.755,0.424-2.686,0.621c-3.562,0.756-7.349,1.321-11.426,1.376
			c-2.649,0.033-5.419-0.144-8.227-0.533c-1.208-0.168-2.481-0.406-3.714-0.666c-0.167-0.034-0.35-0.052-0.514-0.088
			c-1.355-0.3-2.68-0.644-4.059-1.064c-0.061-0.02-0.107-0.069-0.171-0.09c-0.482-0.148-1-0.278-1.485-0.443
			c-0.986-0.332-1.919-0.75-2.915-1.153c-0.34-0.138-0.684-0.252-1.028-0.398c-0.364-0.156-0.719-0.323-1.085-0.488
			c-0.432-0.198-0.88-0.366-1.315-0.577c-1.036-0.502-2.097-1.013-3.141-1.597c-0.024-0.014-0.034-0.03-0.058-0.045
			c-0.712-0.399-1.455-0.802-2.171-1.241c-0.372-0.23-0.712-0.469-1.086-0.71c-0.138-0.089-0.258-0.175-0.399-0.267v-0.132h-0.229
			c-2.189-1.341-5.813-3.343-10.912-5.28c-1.437-0.548-3.01-1.021-4.628-1.507c-0.815-0.246-1.655-0.49-2.513-0.71
			c-0.888-0.23-1.757-0.47-2.686-0.666c-3.563-0.757-7.409-1.322-11.483-1.374C78.158,323.097,77.49,323.089,76.821,323.107z"/>
	</defs>
	<clipPath id="ondas_1_">
		<use xlink:href="#ondas"  overflow="visible"/>
	</clipPath>
	<ellipse id="circulo" clip-path="url(#ondas_1_)" fill="#FFFFFF" cx="200.387" cy="199.261" rx="197.744" ry="197.729"/>
</g>
<g id="ponte_cropped">
	<defs>
		<ellipse id="circulo_2_" cx="201.387" cy="200.001" rx="197.744" ry="197.729"/>
	</defs>
	<clipPath id="circulo_3_">
		<use xlink:href="#circulo_2_"  overflow="visible"/>
	</clipPath>
	<g id="ponte" clip-path="url(#circulo_3_)">
		<path id="path18" fill="none" stroke="#FFFFFF" stroke-width="4" d="M52.518,112.439v56.942
			 M60.537,117.25v53.64 M68.558,121.261v49.47 M76.578,125.27v45.302 M84.6,128.478v41.857 M92.619,131.688v38.647
			 M100.639,134.894v35.362 M108.658,137.301v32.796 M116.68,139.706v30.232 M124.7,141.31v28.708 M132.72,143.717v26.3
			 M140.74,145.321v24.617 M148.76,146.925v22.934 M156.781,147.726v22.054 M164.801,148.529v21.25 M172.82,149.332v20.448
			 M180.84,150.132V169.7 M188.861,150.935v18.845 M196.88,150.792v18.988 M204.901,150.792v18.988 M212.919,150.06v19.72
			 M220.941,150.06v19.72 M228.96,149.332v20.448 M236.981,148v21.859 M245.003,147.244v22.615 M253.021,146.49v23.369
			 M261.043,144.984v24.875 M269.062,143.477v26.382 M277.083,141.214v28.645 M285.104,139.706v30.153 M293.123,137.01v33.087
			 M301.144,134.683v35.335 M309.163,131.582v38.778 M317.184,128.478v41.881 M325.204,125.27v43.393 M333.225,121.261v49.47
			 M341.244,117.25v53.561 M349.262,112.439v58.371 M28.717,112.439v56.943 M20.562,116.298v53.64 M373.411,111.909v58.372
			 M381.057,115.77v53.562 M388.619,122.011v49.47 M12.327,119.288v49.47"/>
		<path id="path20" fill="none" stroke="#FFFFFF" stroke-width="4" d="M-39.713,171.787
			c0,0,80.201-4.009,240.604-4.009c160.404,0,240.605,4.009,240.605,4.009l-20.049,8.021c0,0-60.152-4.011-220.557-4.011
			c-160.403,0-220.554,4.011-220.554,4.011L-39.713,171.787z"/>
		<path id="path22" fill="none" stroke="#FFFFFF" stroke-width="4" d="M-56.556,172.59
			l92.632-66.567h8.823c0,0,55.74,43.709,155.992,43.709c100.253,0,155.992-43.709,155.992-43.709h9.627l91.829,66.567l-1.202,1.604
			l-91.03-66.167l-8.823-0.4c0,0-56.14,44.112-156.393,44.112c-100.251,0-156.393-44.112-156.393-44.112h-8.021l-91.83,66.567
			L-56.556,172.59z"/>
		<path id="path24" fill="none" stroke="#FFFFFF" stroke-width="4" d="M-39.713,171.787
			c0,0,80.201-4.009,240.604-4.009c160.404,0,240.605,4.009,240.605,4.009v-4.009c0,0-80.201-4.011-240.605-4.011
			c-160.403,0-240.604,4.011-240.604,4.011V171.787z"/>
		<rect id="rect26" x="36.476" y="107.626" fill="none" stroke="#FFFFFF" stroke-width="4" width="8.021" height="120.304"/>
		<rect id="rect28" x="357.283" y="107.626" fill="none" stroke="#FFFFFF" stroke-width="4" width="8.021" height="120.304"/>
		<rect id="rect30" x="38.482" y="103.617" fill="none" stroke="#FFFFFF" stroke-width="4" width="4.01" height="124.313"/>
		<rect id="rect32" x="359.291" y="103.617" fill="none" stroke="#FFFFFF" stroke-width="4" width="4.009" height="124.313"/>
	</g>
</g>
<g id="ruby">
	<polygon fill="#DC4126" points="261.182,113.602 260.564,113 260.564,112.033 259.666,111.163 140.49,111.163 138.198,113.385
		138.198,114.365 81.207,169.463 81.581,169.906 198.798,308.837 199.232,308.328 199.929,307.527 318.27,169.906 318.793,169.301
		"/>
	<polygon fill="#F0553A" points="259.666,111.163 140.49,111.163 138.198,113.385 138.198,170.668 260.564,170.668 260.564,112.033
			"/>
	<polygon fill="#F0553A" points="113.594,169.906 81.581,169.906 198.798,308.837 199.232,308.328 147.147,169.906 	"/>
	<polygon fill="#BB3821" points="252.705,169.906 199.929,307.527 318.27,169.906 286.565,169.906 	"/>
	<polygon fill="#DC4126" points="252.705,169.906 200.375,169.906 200.552,169.734 199.618,169.734 199.795,169.906
		147.147,169.906 199.232,308.328 199.929,307.527 	"/>
	<polygon fill="#DC4126" points="138.984,113.602 113.594,169.906 147.147,169.906 147.081,169.734 199.618,169.734
		140.272,112.353 	"/>
	<polygon fill="#F0553A" points="138.984,113.602 81.207,169.463 81.581,169.906 113.594,169.906 	"/>
	<polygon fill="#BB3821" points="261.182,113.602 259.898,112.353 200.552,169.734 252.773,169.734 252.705,169.906
		286.565,169.906 	"/>
	<polygon fill="#DC4126" points="261.182,113.602 286.565,169.906 318.27,169.906 318.793,169.301 	"/>
</g>
</svg>
